dump.vcd
$date
Thu May  8 02:14:54 2025
$end
$version
Riviera-PRO Version 2023.04.112.8911
$end
$timescale
1 ns
$end

$scope module tb $end

$scope module axi $end
$var reg 1 ! awvalid $end
$var reg 1 " awready $end
$var reg 4 # awid [3:0] $end
$var reg 4 $ awlen [3:0] $end
$var reg 3 % awsize [2:0] $end
$var reg 32 & awaddr [31:0] $end
$var reg 2 ' awburst [1:0] $end
$var reg 1 ( wvalid $end
$var reg 1 ) wready $end
$var reg 4 * wid [3:0] $end
$var reg 32 + wdata [31:0] $end
$var reg 4 , wstrb [3:0] $end
$var reg 1 - wlast $end
$var reg 1 . bready $end
$var reg 1 / bvalid $end
$var reg 4 0 bid [3:0] $end
$var reg 2 1 bresp [1:0] $end
$var reg 1 2 arvalid $end
$var reg 1 3 arready $end
$var reg 4 4 arid [3:0] $end
$var reg 4 5 arlen [3:0] $end
$var reg 3 6 arsize [2:0] $end
$var reg 32 7 araddr [31:0] $end
$var reg 2 8 arburst [1:0] $end
$var reg 1 9 rvalid $end
$var reg 1 : rready $end
$var reg 4 ; rid [3:0] $end
$var reg 32 < rdata [31:0] $end
$var reg 4 = rstrb [3:0] $end
$var reg 1 > rlast $end
$var reg 2 ? rresp [1:0] $end
$var reg 1 @ clk $end
$var reg 1 A resetn $end
$var reg 32 B addr_wrapwr [31:0] $end
$var reg 32 C addr_wraprd [31:0] $end
$upscope $end

$upscope $end


$scope module uvm_pkg $end
$var integer 32 D UVM_UNBOUNDED_CONNECTIONS $end
$var reg 1 E uvm_start_uvm_declarations $end
$var integer 32 F uvm_global_random_seed $end
$var parameter 32 G UVM_HDL_MAX_WIDTH [31:0] $end
$var parameter 32 H UVM_STREAMBITS [31:0] $end
$var parameter 32 I UVM_RADIX [31:0] $end
$var parameter 32 J UVM_MACRO_NUMFLAGS [31:0] $end
$var parameter 32 K UVM_DEFAULT [31:0] $end
$var parameter 32 L UVM_ALL_ON [31:0] $end
$var parameter 32 M UVM_FLAGS_ON [31:0] $end
$var parameter 32 N UVM_FLAGS_OFF [31:0] $end
$var parameter 32 O UVM_COPY [31:0] $end
$var parameter 32 P UVM_NOCOPY [31:0] $end
$var parameter 32 Q UVM_COMPARE [31:0] $end
$var parameter 32 R UVM_NOCOMPARE [31:0] $end
$var parameter 32 S UVM_PRINT [31:0] $end
$var parameter 32 T UVM_NOPRINT [31:0] $end
$var parameter 32 U UVM_RECORD [31:0] $end
$var parameter 32 V UVM_NORECORD [31:0] $end
$var parameter 32 W UVM_PACK [31:0] $end
$var parameter 32 X UVM_NOPACK [31:0] $end
$var parameter 32 Y UVM_PHYSICAL [31:0] $end
$var parameter 32 Z UVM_ABSTRACT [31:0] $end
$var parameter 32 [ UVM_READONLY [31:0] $end
$var parameter 32 \ UVM_NODEFPRINT [31:0] $end
$var parameter 32 ] UVM_MACRO_EXTRAS [31:0] $end
$var parameter 32 ^ UVM_FLAGS [31:0] $end
$var parameter 32 _ UVM_UNPACK [31:0] $end
$var parameter 32 ` UVM_CHECK_FIELDS [31:0] $end
$var parameter 32 a UVM_END_DATA_EXTRA [31:0] $end
$var parameter 32 b UVM_START_FUNCS [31:0] $end
$var parameter 32 c UVM_SET [31:0] $end
$var parameter 32 d UVM_SETINT [31:0] $end
$var parameter 32 e UVM_SETOBJ [31:0] $end
$var parameter 32 f UVM_SETSTR [31:0] $end
$var parameter 32 g UVM_END_FUNCS [31:0] $end
$var parameter 32 h UVM_STR_CRC_POLYNOMIAL [31:0] $end
$var parameter 32 i UVM_STDOUT [31:0] $end
$var parameter 32 j UVM_LOG_UVM_RM_RECORD [31:0] $end
$var parameter 32 k UVM_LINE_WIDTH [31:0] $end
$var parameter 32 l UVM_NUM_LINES [31:0] $end
$var parameter 32 m UVM_SMALL_STRING [31:0] $end
$var parameter 32 n UVM_LARGE_STRING [31:0] $end

$scope function uvm_hdl_check_path $end
$var integer 32 o uvm_hdl_check_path $end
$upscope $end


$scope function uvm_hdl_deposit $end
$var reg 1024 p value [1023:0] $end
$var integer 32 q uvm_hdl_deposit $end
$upscope $end


$scope function uvm_hdl_force $end
$var reg 1024 r value [1023:0] $end
$var integer 32 s uvm_hdl_force $end
$upscope $end


$scope task uvm_hdl_force_time $end
$var reg 1024 t value [1023:0] $end
$var time 64 u force_time $end
$upscope $end


$scope function uvm_hdl_release_and_read $end
$var reg 1024 v value [1023:0] $end
$var integer 32 w uvm_hdl_release_and_read $end
$upscope $end


$scope function uvm_hdl_release $end
$var integer 32 x uvm_hdl_release $end
$upscope $end


$scope function uvm_hdl_read $end
$var reg 1024 y value [1023:0] $end
$var integer 32 z uvm_hdl_read $end
$upscope $end


$scope function uvm_dpi_get_next_arg_c $end
$var integer 32 { init $end
$upscope $end


$scope function uvm_dpi_get_tool_name_c $end
$upscope $end


$scope function uvm_dpi_get_tool_version_c $end
$upscope $end


$scope function uvm_dpi_get_next_arg $end
$var integer 32 | init $end
$upscope $end


$scope function uvm_dpi_get_tool_name $end
$upscope $end


$scope function uvm_dpi_get_tool_version $end
$upscope $end


$scope function uvm_dpi_regcomp $end
$upscope $end


$scope function uvm_dpi_regexec $end
$var integer 32 } uvm_dpi_regexec $end
$upscope $end


$scope function uvm_dpi_regfree $end
$upscope $end


$scope function uvm_re_match $end
$var integer 32 ~ uvm_re_match $end
$upscope $end


$scope function uvm_dump_re_cache $end
$upscope $end


$scope function uvm_glob_to_re $end
$upscope $end


$scope function uvm_revision_string $end
$upscope $end


$scope function uvm_radix_to_string $end
$var integer 32 !! radix $end
$upscope $end


$scope function uvm_instance_scope $end
$var reg 8 "! c [7:0] $end
$var integer 32 #! pos $end

$scope begin 1unnblk $end
$var integer 32 $! dot_pos $end
$var integer 32 %! slash_cnt $end
$var integer 32 &! slash_pos $end
$upscope $end

$upscope $end


$scope function uvm_oneway_hash $end
$var integer 32 '! seed $end
$var integer 32 (! uvm_oneway_hash $end
$var reg 1 )! msb $end
$var reg 8 *! current_byte [7:0] $end
$var reg 32 +! crc1 [31:0] $end
$upscope $end


$scope function uvm_create_random_seed $end
$var integer 32 ,! uvm_create_random_seed $end
$upscope $end


$scope function uvm_object_value_str $end
$upscope $end


$scope function uvm_leaf_scope $end
$var reg 8 -! scope_separator [7:0] $end
$var reg 8 .! bracket_match [7:0] $end
$var integer 32 /! pos $end
$var integer 32 0! bmatches $end
$upscope $end


$scope function get_radix_string_global $end
$var integer 32 1! radix $end
$upscope $end


$scope function uvm_bitstream_to_string $end
$var reg 4096 2! value [4095:0] $end
$var integer 32 3! size $end
$var integer 32 4! radix $end

$scope begin 24unnblk $end
$var reg 4096 5! _t [4095:0] $end
$upscope $end

$upscope $end


$scope function uvm_integral_to_string $end
$var reg 64 6! value [63:0] $end
$var integer 32 7! size $end
$var integer 32 8! radix $end

$scope begin 26unnblk $end
$var reg 64 9! _t [63:0] $end
$upscope $end

$upscope $end


$scope function uvm_vector_to_string $end
$var reg 4096 :! value [4095:0] $end
$var integer 32 ;! size $end
$var integer 32 <! radix $end
$upscope $end


$scope function uvm_get_array_index_int $end
$var reg 1 =! is_wildcard $end
$var integer 32 >! uvm_get_array_index_int $end
$var integer 32 ?! i $end
$upscope $end


$scope function uvm_get_array_index_string $end
$var reg 1 @! is_wildcard $end
$var integer 32 A! i $end
$upscope $end


$scope function uvm_is_array $end
$var reg 1 B! uvm_is_array $end
$upscope $end


$scope function uvm_has_wildcard $end
$upscope $end


$scope function m_uvm_string_queue_join $end
$upscope $end


$scope task run_test $end
$upscope $end


$scope function global_stop_request $end
$upscope $end


$scope function set_global_timeout $end
$var time 64 C! timeout $end
$var reg 1 D! overridable $end
$upscope $end


$scope function set_global_stop_timeout $end
$var time 64 E! timeout $end
$upscope $end


$scope function uvm_get_report_object $end
$upscope $end


$scope function uvm_report_enabled $end
$var integer 32 F! verbosity $end
$var reg 2 G! severity $end
$var integer 32 H! uvm_report_enabled $end
$upscope $end


$scope function uvm_report $end
$var reg 2 I! severity $end
$var integer 32 J! verbosity $end
$var integer 32 K! line $end
$var reg 1 L! report_enabled_checked $end
$upscope $end


$scope function m__uvm_report_dpi $end
$var integer 32 M! severity $end
$var integer 32 N! verbosity $end
$var integer 32 O! line $end
$upscope $end


$scope function uvm_report_info $end
$var integer 32 P! verbosity $end
$var integer 32 Q! line $end
$var reg 1 R! report_enabled_checked $end
$upscope $end


$scope function uvm_report_warning $end
$var integer 32 S! verbosity $end
$var integer 32 T! line $end
$var reg 1 U! report_enabled_checked $end
$upscope $end


$scope function uvm_report_error $end
$var integer 32 V! verbosity $end
$var integer 32 W! line $end
$var reg 1 X! report_enabled_checked $end
$upscope $end


$scope function uvm_report_fatal $end
$var integer 32 Y! verbosity $end
$var integer 32 Z! line $end
$var reg 1 [! report_enabled_checked $end
$upscope $end


$scope function uvm_process_report_message $end
$upscope $end


$scope function uvm_string_to_severity $end
$var reg 2 \! sev $end
$var reg 1 ]! uvm_string_to_severity $end
$upscope $end


$scope function uvm_string_to_action $end
$upscope $end


$scope function set_config_int $end
$var reg 4096 ^! value [4095:0] $end
$upscope $end


$scope function set_config_object $end
$var reg 1 _! clone $end
$upscope $end


$scope function set_config_string $end
$upscope $end


$scope function uvm_is_match $end
$var reg 1 `! uvm_is_match $end
$upscope $end


$scope function uvm_string_to_bits $end
$var reg 115200 a! uvm_string_to_bits [115199:0] $end
$upscope $end


$scope function uvm_bits_to_string $end
$var reg 115200 b! str [115199:0] $end
$upscope $end


$scope task uvm_wait_for_nba_region $end
$var integer 32 c! nba $end
$var integer 32 d! next_nba $end
$upscope $end


$scope function uvm_split_string $end
$upscope $end


$scope function uvm_hdl_concat2string $end
$upscope $end

$upscope $end


$scope module std $end

$scope function randomize $end
$var reg 1 e! randomize $end
$upscope $end

$upscope $end

$enddefinitions $end
$dumpvars
x!
x"
bx #
bx $
bx %
bx &
bx '
x(
x)
bx *
bx +
bx ,
x-
x.
0/
bx 0
bx 1
x2
x3
bx 4
bx 5
bx 6
bx 7
bx 8
x9
x:
bx ;
bx <
bx =
x>
bx ?
0@
0A
bx B
bx C
b11111111111111111111111111111111 D
1E
b1000011111110111011111100011111 F
b10000000000 G
b1000000000000 H
b1111000000000000000000000000 I
b10001 J
b10101010101 K
b101010101 L
b101010101 M
b0 N
b1 O
b10 P
b100 Q
b1000 R
b10000 S
b100000 T
b1000000 U
b10000000 V
b100000000 W
b1000000000 X
b10000000000000 Y
b100000000000000 Z
b1000000000000000 [
b10000000000000000 \
b100000000000000000 ]
b100000000000000001 ^
b100000000000000010 _
b100000000000000011 `
b100000000000000100 a
b100000000000000101 b
b100000000000000110 c
b100000000000000110 d
b100000000000000111 e
b100000000000001000 f
b100000000000001000 g
b100110000010001110110110110 h
b1 i
b1000010 j
b1111000 k
b1111000 l
b1110111111 m
b11100000111111111 n
b0 o
bx p
b0 q
bx r
b0 s
bx t
bx u
bx v
b0 w
b0 x
bx y
b0 z
b0 {
b0 |
b0 }
b0 ~
b0 !!
b101110 "!
b11011 #!
b10001 $!
b11 %!
b11001 &!
b1000011111110111011111100011111 '!
b11110010101111100100110001111110 (!
1)!
b1110100 *!
b10100000011100100011110101010001 +!
b10001011111110001101011001001 ,!
b0 -!
b0 .!
b0 /!
b0 0!
b0 1!
bx 2!
b0 3!
b0 4!
bx 5!
bx 6!
b0 7!
b0 8!
bx 9!
bx :!
b0 ;!
b0 <!
0=!
b0 >!
b0 ?!
0@!
b0 A!
0B!
bx C!
0D!
bx E!
b111110100 F!
b0 G!
b0 H!
b0 I!
b0 J!
b0 K!
0L!
b0 M!
b0 N!
b0 O!
b0 P!
b0 Q!
0R!
b0 S!
b0 T!
0U!
b0 V!
b0 W!
0X!
b0 Y!
b0 Z!
0[!
b0 \!
0]!
bx ^!
0_!
0`!
bx a!
bx b!
b110100 c!
b110100 d!
0e!
$end
#5
1@
b100101110 &
b1010 $
b1111 #
b10 %
b1 '
1!
#10
0@
#15
1@
1A
1"
#20
0@
#25
1@
0!
0"
#30
0@
#35
1@
#40
0@
#45
1@
#50
0@
#55
1@
#60
0@
#65
1@
#70
0@
#75
1@
#80
0@
#85
1@
#90
0@
#95
1@
#100
0@
#105
1@
#110
0@
#115
1@
#120
0@
#125
1@
#130
0@
#135
1@
#140
0@
#145
1@
#150
0@
#155
1@
#160
0@
#165
1@
#170
0@
#175
1@
#180
0@
#185
1@
#190
0@
#195
1@
#200
0@
#205
1@
#210
0@
#215
1@
#220
0@
#225
1@
#230
0@
#235
1@
b111100111 &
b1101 $
b1100 #
1!
#240
0@
#245
1@
1"
#250
0@
#255
1@
0!
0"
#260
0@
#265
1@
#270
0@
#275
1@
#280
0@
#285
1@
#290
0@
#295
1@
#300
0@
#305
1@
#310
0@
#315
1@
#320
0@
#325
1@
#330
0@
#335
1@
#340
0@
#345
1@
#350
0@
#355
1@
#360
0@
#365
1@
#370
0@
#375
1@
#380
0@
#385
1@
#390
0@
#395
1@
#400
0@
#405
1@
#410
0@
#415
1@
#420
0@
#425
1@
#430
0@
#435
1@
#440
0@
#445
1@
#450
0@
#455
1@
#460
0@
#465
1@
b100000001 &
b100 $
b110 #
1!
#470
0@
#475
1@
1"
#480
0@
#485
1@
0!
0"
